<?xml version="1.0" encoding="UTF-8" standalone="no"?>
<svg
   xmlns:dc="http://purl.org/dc/elements/1.1/"
   xmlns:cc="http://creativecommons.org/ns#"
   xmlns:rdf="http://www.w3.org/1999/02/22-rdf-syntax-ns#"
   xmlns:svg="http://www.w3.org/2000/svg"
   xmlns="http://www.w3.org/2000/svg"
   xmlns:sodipodi="http://sodipodi.sourceforge.net/DTD/sodipodi-0.dtd"
   xmlns:inkscape="http://www.inkscape.org/namespaces/inkscape"
   version="1.1"
   id="Layer_1"
   x="0px"
   y="0px"
   width="226.80742"
   height="68.537903"
   viewBox="0 0 252.00824 76.153222"
   enable-background="new 0 0 24.518 33.002"
   xml:space="preserve"
   inkscape:version="0.48.4 r9939"
   sodipodi:docname="pushbutton.svg"
   inkscape:export-filename="/home/msm/Dropbox/opentextbooks/gefion-favrskov/git-overleaf/git-Ellaere-FyB/grafik/ellaere/pushbutton.png"
   inkscape:export-xdpi="47.301113"
   inkscape:export-ydpi="47.301113"><metadata
     id="metadata61"><rdf:RDF><cc:Work
         rdf:about=""><dc:format>image/svg+xml</dc:format><dc:type
           rdf:resource="http://purl.org/dc/dcmitype/StillImage" /><dc:title /></cc:Work></rdf:RDF></metadata><defs
     id="defs59" /><sodipodi:namedview
     pagecolor="#ffffff"
     bordercolor="#666666"
     borderopacity="1"
     objecttolerance="10"
     gridtolerance="10"
     guidetolerance="10"
     inkscape:pageopacity="0"
     inkscape:pageshadow="2"
     inkscape:window-width="1295"
     inkscape:window-height="744"
     id="namedview57"
     showgrid="false"
     inkscape:zoom="2.8092101"
     inkscape:cx="164.59495"
     inkscape:cy="39.16601"
     inkscape:window-x="65"
     inkscape:window-y="24"
     inkscape:window-maximized="1"
     inkscape:current-layer="Layer_1"
     fit-margin-top="0"
     fit-margin-left="0"
     fit-margin-right="0"
     fit-margin-bottom="0" /><rect
     id="connector0pin"
     x="191.23029"
     y="16.136435"
     width="3"
     height="4.25"
     style="fill:none" /><rect
     id="connector1pin"
     x="191.23029"
     y="44.886436"
     width="3"
     height="4.25"
     style="fill:none" /><rect
     id="connector2pin"
     x="171.23029"
     y="16.136435"
     width="3"
     height="4.25"
     style="fill:none" /><rect
     id="connector3pin"
     x="171.23029"
     y="44.886436"
     width="3"
     height="4.25"
     style="fill:none" /><rect
     id="connector0terminal"
     x="191.23029"
     y="16.136435"
     width="3"
     height="3"
     style="fill:none" /><rect
     id="connector1terminal"
     x="191.23029"
     y="46.136436"
     width="3"
     height="3"
     style="fill:none" /><rect
     id="connector2terminal"
     x="171.23029"
     y="16.136435"
     width="3"
     height="3"
     style="fill:none" /><rect
     id="connector3terminal"
     x="171.23029"
     y="46.136436"
     width="3"
     height="3"
     style="fill:none" /><g
     id="breadboard"
     transform="translate(106.94485,22.0673)"><g
       id="g12"><polygon
         points="20.586,32.979 20.586,21.487 23.586,21.487 23.586,32.979 "
         id="polygon14"
         style="fill:#8c8c8c" /><polygon
         points="0.586,11.493 0.586,0.001 3.584,0.001 3.584,11.493 "
         id="polygon16"
         style="fill:#8c8c8c" /><polygon
         points="20.586,11.494 20.586,0 23.586,0 23.586,11.494 "
         id="polygon18"
         style="fill:#8c8c8c" /><polygon
         points="0.587,32.981 0.587,21.487 3.586,21.487 3.586,32.981 "
         id="polygon20"
         style="fill:#8c8c8c" /><rect
         x="0.012"
         y="4.2319999"
         width="24.518"
         height="24.52"
         id="rect22" /><path
         d="m 24.529,26.752 c 0,1.101 -0.896,1.999 -2,1.999 H 2.011 c -1.101,0 -1.999,-0.898 -1.999,-1.999 V 6.23 c 0,-1.1 0.898,-1.998 1.999,-1.998 h 20.521 c 1.103,0 1.997,0.898 1.997,1.998 l 0,20.522 0,0 z"
         id="path24"
         inkscape:connector-curvature="0"
         style="fill:#999999" /><circle
         cx="3.5829999"
         cy="7.803"
         r="2.1240001"
         id="circle26"
         d="m 5.707,7.803 c 0,1.1730528 -0.9509472,2.124 -2.1240001,2.124 -1.1730528,0 -2.124,-0.9509472 -2.124,-2.124 0,-1.1730529 0.9509472,-2.1240001 2.124,-2.1240001 C 4.7560528,5.6789999 5.707,6.6299471 5.707,7.803 z"
         sodipodi:cx="3.5829999"
         sodipodi:cy="7.803"
         sodipodi:rx="2.1240001"
         sodipodi:ry="2.1240001" /><circle
         cx="21.018"
         cy="7.8400002"
         r="2.1240001"
         id="circle28"
         d="m 23.142,7.8400002 c 0,1.1730528 -0.950948,2.124 -2.124,2.124 -1.173053,0 -2.124,-0.9509472 -2.124,-2.124 0,-1.1730529 0.950947,-2.1240001 2.124,-2.1240001 1.173052,0 2.124,0.9509472 2.124,2.1240001 z"
         sodipodi:cx="21.018"
         sodipodi:cy="7.8400002"
         sodipodi:rx="2.1240001"
         sodipodi:ry="2.1240001" /><circle
         cx="20.981001"
         cy="25.275"
         r="2.1240001"
         id="circle30"
         d="m 23.105001,25.275 c 0,1.173052 -0.950947,2.124 -2.124,2.124 -1.173053,0 -2.124,-0.950948 -2.124,-2.124 0,-1.173053 0.950947,-2.124 2.124,-2.124 1.173053,0 2.124,0.950947 2.124,2.124 z"
         sodipodi:cx="20.981001"
         sodipodi:cy="25.275"
         sodipodi:rx="2.1240001"
         sodipodi:ry="2.1240001" /><circle
         cx="3.546"
         cy="25.236"
         r="2.1240001"
         id="circle32"
         d="m 5.6700001,25.236 c 0,1.173053 -0.9509472,2.124 -2.1240001,2.124 -1.1730528,0 -2.1240001,-0.950947 -2.1240001,-2.124 0,-1.173053 0.9509473,-2.124 2.1240001,-2.124 1.1730529,0 2.1240001,0.950947 2.1240001,2.124 z"
         sodipodi:cx="3.546"
         sodipodi:cy="25.236"
         sodipodi:rx="2.1240001"
         sodipodi:ry="2.1240001" /><circle
         cx="12.27"
         cy="16.490999"
         r="7.1500001"
         id="circle34"
         d="m 19.420001,16.490999 c 0,3.948836 -3.201165,7.15 -7.150001,7.15 -3.9488356,0 -7.1499996,-3.201164 -7.1499996,-7.15 0,-3.948836 3.201164,-7.1499999 7.1499996,-7.1499999 3.948836,0 7.150001,3.2011639 7.150001,7.1499999 z"
         sodipodi:cx="12.27"
         sodipodi:cy="16.490999"
         sodipodi:rx="7.1500001"
         sodipodi:ry="7.1500001"
         style="fill:#3f3f3f" /><linearGradient
         id="SVGID_1_"
         gradientUnits="userSpaceOnUse"
         x1="-267.87961"
         y1="-465.3486"
         x2="-253.5798"
         y2="-465.3486"
         gradientTransform="matrix(1,0,0,-1,273,-448.8574)"><stop
           offset="0"
           style="stop-color:#333333"
           id="stop37" /><stop
           offset="1"
           style="stop-color:#3C3C3C"
           id="stop39" /></linearGradient><circle
         cx="12.27"
         cy="16.490999"
         r="7.1500001"
         id="circle41"
         d="m 19.420001,16.490999 c 0,3.948836 -3.201165,7.15 -7.150001,7.15 -3.9488356,0 -7.1499996,-3.201164 -7.1499996,-7.15 0,-3.948836 3.201164,-7.1499999 7.1499996,-7.1499999 3.948836,0 7.150001,3.2011639 7.150001,7.1499999 z"
         style="fill:url(#SVGID_1_)"
         sodipodi:cx="12.27"
         sodipodi:cy="16.490999"
         sodipodi:rx="7.1500001"
         sodipodi:ry="7.1500001" /><circle
         enable-background="new    "
         cx="12.395"
         cy="17.341"
         r="6.2919998"
         id="circle43"
         d="m 18.687,17.341 c 0,3.474975 -2.817024,6.291999 -6.292,6.291999 -3.4749751,0 -6.2919994,-2.817024 -6.2919994,-6.291999 0,-3.474976 2.8170243,-6.292 6.2919994,-6.292 3.474976,0 6.292,2.817024 6.292,6.292 z"
         sodipodi:cx="12.395"
         sodipodi:cy="17.341"
         sodipodi:rx="6.2919998"
         sodipodi:ry="6.2919998"
         style="opacity:0.6" /><circle
         cx="12.279"
         cy="16.533001"
         r="6.132"
         id="circle45"
         d="m 18.411,16.533001 c 0,3.38661 -2.74539,6.132 -6.132,6.132 -3.3866098,0 -6.1319997,-2.74539 -6.1319997,-6.132 0,-3.38661 2.7453899,-6.132 6.1319997,-6.132 3.38661,0 6.132,2.74539 6.132,6.132 z"
         sodipodi:cx="12.279"
         sodipodi:cy="16.533001"
         sodipodi:rx="6.132"
         sodipodi:ry="6.132"
         style="fill:#735348" /><path
         enable-background="new    "
         d="M 3.308,7.692 C 3.35,7.592 3.427,7.515 3.536,7.496 L 3.326,6.158 C 3.246,6.171 3.161,6.16 3.082,6.184 L 3.08,6.178 C 2.585,6.331 2.215,6.7 2.026,7.171 l 1.282,0.521 z"
         id="path47"
         inkscape:connector-curvature="0"
         style="opacity:0.5;fill:#ffffff" /><path
         enable-background="new    "
         d="M 20.741,7.728 C 20.782,7.626 20.859,7.549 20.97,7.531 L 20.763,6.193 C 20.681,6.208 20.597,6.195 20.518,6.219 L 20.515,6.212 c -0.493,0.152 -0.864,0.521 -1.053,0.993 l 1.279,0.523 z"
         id="path49"
         inkscape:connector-curvature="0"
         style="opacity:0.5;fill:#ffffff" /><path
         enable-background="new    "
         d="m 20.707,25.163 c 0.041,-0.102 0.116,-0.18 0.227,-0.197 l -0.207,-1.337 c -0.082,0.015 -0.166,0.002 -0.246,0.026 l -0.002,-0.01 c -0.494,0.152 -0.865,0.521 -1.053,0.994 l 1.281,0.524 z"
         id="path51"
         inkscape:connector-curvature="0"
         style="opacity:0.5;fill:#ffffff" /><path
         enable-background="new    "
         d="M 3.271,25.126 C 3.312,25.024 3.389,24.95 3.5,24.931 L 3.29,23.592 C 3.208,23.609 3.124,23.594 3.045,23.619 L 3.043,23.612 c -0.495,0.15 -0.865,0.521 -1.056,0.992 l 1.284,0.522 z"
         id="path53"
         inkscape:connector-curvature="0"
         style="opacity:0.5;fill:#ffffff" /><path
         enable-background="new    "
         d="M 14.473,10.818 C 13.998,10.633 13.498,10.5 12.969,10.44 11.653,10.293 10.393,10.585 9.316,11.182 L 9.182,11.53 c 1.203,-0.643 2.604,-0.941 4.062,-0.778 0.448,0.052 0.884,0.152 1.301,0.284 l -0.072,-0.218 z"
         id="path55"
         inkscape:connector-curvature="0"
         style="opacity:0.6;fill:#ffffff" /></g></g><g
     id="icon"
     transform="matrix(1.1111111,0,0,1.1111111,-1.2766498,12.184541)"><path
       d="M 28.147,31.763 V 18.306 C 28.143,17.842 28.032,17.66 27.946,17.571 l 0,0 c -0.089,-0.085 -0.268,-0.215 -0.81,-0.221 l 0,0 H 4.581 C 4.276,17.348 4.082,17.389 4,17.42 l 0,0 c -0.074,0.016 -0.058,0.028 -0.062,0.026 l 0,0 c 0,0 -0.012,0.013 -0.031,0.076 l 0,0 c -0.027,0.08 -0.058,0.249 -0.058,0.503 l 0,0 v 13.737 h -2.7 V 18.025 C 1.147,17.147 1.342,16.214 2.047,15.52 l 0,0 c 0.708,-0.686 1.636,-0.872 2.534,-0.872 l 0,0 h 22.556 c 1.032,-0.006 2.037,0.315 2.735,1.03 l 0,0 c 0.7,0.712 0.982,1.683 0.977,2.626 l 0,0 0.002,13.457 h -2.704 l 0,0.002 z"
       id="pins"
       inkscape:connector-curvature="0"
       style="fill:#8c8c8c" /><path
       d="M 9.661,12.124 C 9.211,11.919 8.437,11.751 7.942,11.751 H 5.453 c -0.495,0 -0.9,0.405 -0.9,0.9 v 6.697 c 0,0.495 0.405,0.9 0.9,0.9 h 2.488 c 0.495,0 1.269,-0.168 1.719,-0.373 l 0.092,-0.042 c 0.451,-0.205 1.224,-0.373 1.719,-0.373 h 8.981 c 0.494,0 1.268,0.168 1.719,0.373 l 0.094,0.042 c 0.45,0.205 1.224,0.373 1.719,0.373 h 2.488 c 0.494,0 0.9,-0.405 0.9,-0.9 v -6.697 c 0,-0.495 -0.406,-0.9 -0.9,-0.9 h -2.488 c -0.495,0 -1.27,0.167 -1.719,0.372 l -0.094,0.042 c -0.45,0.205 -1.225,0.372 -1.719,0.372 h -8.981 c -0.495,0 -1.269,-0.167 -1.719,-0.372 L 9.661,12.124 z"
       id="body"
       inkscape:connector-curvature="0"
       style="fill:#d9b477" /><rect
       height="8.4980001"
       width="0.87099999"
       y="11.751"
       x="24.382999"
       id="gold_band"
       style="fill:#ad9f4e" /><path
       d="M 10.141,12.309 C 9.997,12.265 9.866,12.216 9.753,12.165 L 9.661,12.124 C 9.211,11.919 8.437,11.751 7.942,11.751 H 7.833 v 8.498 h 0.109 c 0.495,0 1.269,-0.168 1.719,-0.373 l 0.092,-0.042 c 0.112,-0.051 0.244,-0.1 0.388,-0.145 v -7.38 z"
       id="band_1_st"
       inkscape:connector-curvature="0"
       style="fill:#c40808" /><rect
       height="6.9239998"
       width="2.309"
       y="12.537"
       x="12.449"
       id="band_2_nd"
       style="fill:#c40808" /><rect
       height="6.9239998"
       width="2.309"
       y="12.537"
       x="17.066999"
       id="band_3_rd_multiplier"
       style="fill:#8a3d06" /><path
       d="m 26.49,16.613 0,0 c 0,0.479 -0.164,0.871 -0.365,0.871 h -2.407 c -0.479,0 -1.226,-0.069 -1.662,-0.152 l -0.089,-0.018 c -0.437,-0.082 -1.186,-0.15 -1.664,-0.15 h -8.682 c -0.478,0 -1.226,0.068 -1.662,0.15 L 9.87,17.332 C 9.435,17.415 8.687,17.484 8.208,17.484 H 7.815 6.566 6.183 c -0.479,0 -0.87,0.365 -0.87,0.81 v 0.304 0.197 0.22 c 0,0.446 0.391,0.811 0.87,0.811 h 2.025 c 0.479,0 1.227,-0.151 1.662,-0.335 l 0.089,-0.037 c 0.436,-0.186 1.184,-0.336 1.662,-0.336 h 8.682 c 0.479,0 1.228,0.15 1.664,0.336 l 0.089,0.037 c 0.437,0.184 1.183,0.335 1.662,0.335 h 2.784 c 0.479,0 0.871,-0.364 0.871,-0.811 v -0.679 -1.218 -2.307 c -0.348,0.15 -0.883,0.525 -0.883,1.802 z"
       id="Shadow"
       inkscape:connector-curvature="0"
       style="opacity:0.3" /><rect
       height="3.938"
       width="0.87099999"
       y="15.861"
       x="24.382999"
       id="ShadowExtra"
       style="opacity:0.4" /><path
       d="m 21.541,12.863 c 0.29,0 0.613,-0.127 0.83,-0.213 0.251,-0.1 0.717,-0.183 1.209,-0.183 h 1.828 c 0.281,0 0.281,0.31 0.281,0.464 0,0.154 -0.014,0.478 -0.281,0.478 h -3.823 c -0.136,0 -0.283,-0.141 -0.283,-0.281 0,-0.097 0.086,-0.265 0.239,-0.265 z"
       id="ReflexRight"
       inkscape:connector-curvature="0"
       style="opacity:0.25;fill:#ffffff" /><circle
       r="0.54100001"
       cy="12.923"
       cx="5.6059999"
       id="ReflexLeft"
       sodipodi:cx="5.6059999"
       sodipodi:cy="12.923"
       sodipodi:rx="0.54100001"
       sodipodi:ry="0.54100001"
       style="opacity:0.35;fill:#ffffff"
       d="m 6.147,12.923 c 0,0.298786 -0.242214,0.541 -0.5410001,0.541 -0.298786,0 -0.541,-0.242214 -0.541,-0.541 0,-0.298786 0.242214,-0.541 0.541,-0.541 0.2987861,0 0.5410001,0.242214 0.5410001,0.541 z" /><rect
       height="2.0250001"
       width="0.87099999"
       y="12.036"
       x="24.382999"
       id="Reflex_gold"
       style="opacity:0.5;fill:#ffff33" /><rect
       height="0.93800002"
       width="0.87099999"
       y="12.486"
       x="24.382999"
       id="Reflex_extra"
       style="opacity:0.5;fill:#ffffff" /></g><g
     id="icon-2"
     transform="matrix(1.1111111,0,0,1.1111111,46.58718,0.57877847)"><rect
       id="rect3170"
       height="43.049999"
       width="2.6889999"
       y="24.962"
       x="11.387"
       style="fill:#8c8c8c" /><path
       id="path3172"
       d="m 23.079,37.246 c 0,-1.467 -1.331,-2.629 -2.61,-3.74 -0.52,-0.458 -1.5,-1.251 -1.5,-1.779 v -6.84 h -2.701 v 7.225 c 0,1.324 1.186,2.349 2.434,3.435 0.555,0.472 1.687,1.563 1.687,2.213 0,0.263 0.002,30.257 0.002,30.257 h 2.691 L 23.079,37.246 z"
       inkscape:connector-curvature="0"
       style="fill:#8c8c8c" /><g
       id="g12-2"><path
         d="m 24.791,16.988 v -7.39 c 0,-4.891 -3.96,-8.86 -8.857,-8.86 -4.892,0 -8.861,3.962 -8.861,8.86 V 26.66 c 1.842,2.062 5.121,3.439 8.86,3.439 5.774,0 10.459,-3.271 10.459,-7.324 v -1.903 c 0.001,-1.429 -0.591,-2.755 -1.601,-3.884 z"
         enable-background="new    "
         id="color_path14"
         inkscape:connector-curvature="0"
         style="opacity:0.3;fill:#e60000" /><path
         d="m 24.791,16.988 v -7.39 c 0,-4.891 -3.96,-8.86 -8.857,-8.86 -4.892,0 -8.861,3.962 -8.861,8.86 V 26.66 c 1.842,2.062 5.121,3.439 8.86,3.439 5.774,0 10.459,-3.271 10.459,-7.324 v -1.903 c 0.001,-1.429 -0.591,-2.755 -1.601,-3.884 z"
         enable-background="new    "
         id="path16"
         inkscape:connector-curvature="0"
         style="opacity:0.5;fill:#e6e6e6" /><path
         d="m 24.791,16.988 v 3.883 c 0,3.423 -3.957,6.205 -8.857,6.205 -4.892,0 -8.861,-2.773 -8.861,-6.205 v 3.881 1.905 c 1.842,2.063 5.121,3.44 8.86,3.44 5.774,0 10.459,-3.272 10.459,-7.322 v -1.904 c 0.001,-1.428 -0.591,-2.754 -1.601,-3.883 z"
         enable-background="new    "
         id="path18"
         inkscape:connector-curvature="0"
         style="opacity:0.9;fill:#d1d1d1" /><path
         d="m 24.791,16.988 v 3.883 c 0,3.423 -3.957,6.205 -8.857,6.205 -4.892,0 -8.861,-2.773 -8.861,-6.205 v 3.881 1.905 c 1.842,2.063 5.121,3.44 8.86,3.44 5.774,0 10.459,-3.272 10.459,-7.322 v -1.904 c 0.001,-1.428 -0.591,-2.754 -1.601,-3.883 z"
         enable-background="new    "
         id="color_path20"
         inkscape:connector-curvature="0"
         style="opacity:0.7;fill:#e60000" /><path
         d="m 24.791,16.988 v 3.883 c 0,3.423 -3.957,6.205 -8.857,6.205 -4.892,0 -8.861,-2.773 -8.861,-6.205 v 3.881 c 1.842,2.062 5.121,3.439 8.86,3.439 5.774,0 10.459,-3.271 10.459,-7.322 0.001,-1.426 -0.591,-2.752 -1.601,-3.881 z"
         enable-background="new    "
         id="path22"
         inkscape:connector-curvature="0"
         style="opacity:0.25" /><ellipse
         ry="6.2010002"
         rx="8.8590002"
         cy="20.871"
         cx="15.933"
         enable-background="new    "
         id="ellipse24"
         sodipodi:cx="15.933"
         sodipodi:cy="20.871"
         sodipodi:rx="8.8590002"
         sodipodi:ry="6.2010002"
         style="opacity:0.25;fill:#e6e6e6"
         d="m 24.792,20.871 c 0,3.424718 -3.96631,6.201001 -8.859,6.201001 -4.892691,0 -8.8590006,-2.776283 -8.8590006,-6.201001 0,-3.424718 3.9663096,-6.201 8.8590006,-6.201 4.89269,0 8.859,2.776282 8.859,6.201 z" /><ellipse
         ry="6.2010002"
         rx="8.8590002"
         cy="20.871"
         cx="15.933"
         enable-background="new    "
         id="color_ellipse26"
         sodipodi:cx="15.933"
         sodipodi:cy="20.871"
         sodipodi:rx="8.8590002"
         sodipodi:ry="6.2010002"
         style="opacity:0.25;fill:#e60000"
         d="m 24.792,20.871 c 0,3.424718 -3.96631,6.201001 -8.859,6.201001 -4.892691,0 -8.8590006,-2.776283 -8.8590006,-6.201001 0,-3.424718 3.9663096,-6.201 8.8590006,-6.201 4.89269,0 8.859,2.776282 8.859,6.201 z" /><polygon
         points="9.828,12.797 9.828,20.871 11.068,20.871 11.068,17.105 14.593,17.105 19.589,11.744 11.332,11.744 "
         id="polygon28"
         style="fill:#666666" /><polygon
         points="20.547,11.393 21.092,12.03 16.338,17.105 20.898,17.105 20.898,20.871 22.041,20.871 22.041,11.393 "
         id="polygon30"
         style="fill:#666666" /><path
         d="m 24.791,16.988 v -7.39 c 0,-4.891 -3.96,-8.86 -8.857,-8.86 -4.892,0 -8.861,3.962 -8.861,8.86 V 26.66 c 1.842,2.062 5.121,3.439 8.86,3.439 5.774,0 10.459,-3.271 10.459,-7.324 v -1.903 c 0.001,-1.429 -0.591,-2.755 -1.601,-3.884 z"
         enable-background="new    "
         id="color_path32"
         inkscape:connector-curvature="0"
         style="opacity:0.65;fill:#e60000" /><path
         d="M 20.059,5.43 21.854,5.088 C 20.802,3.673 19.252,2.641 17.427,2.29 l 0.318,1.351 c 0.954,0.338 1.758,0.976 2.314,1.789 z"
         enable-background="new    "
         id="path34"
         inkscape:connector-curvature="0"
         style="opacity:0.5;fill:#ffffff" /><path
         d="m 8.034,25.645 v 1.9 c 0.811,0.662 1.792,1.221 2.885,1.646 V 27.285 C 9.82,26.865 8.848,26.309 8.034,25.645 z"
         enable-background="new    "
         id="path36"
         inkscape:connector-curvature="0"
         style="opacity:0.5;fill:#ffffff" /><path
         d="m 20.914,25.999 c -0.318,0.153 -0.662,0.288 -1.007,0.413 -0.072,0.023 -0.146,0.05 -0.222,0.072 -0.705,0.225 -1.451,0.397 -2.244,0.494 -0.094,0.011 -0.188,0.021 -0.281,0.022 -0.399,0.037 -0.804,0.072 -1.213,0.072 -0.186,0 -0.384,-0.021 -0.589,-0.029 -1.5,-0.069 -2.914,-0.396 -4.122,-0.924 V 15.634 9.603 c 0,-1.839 1.061,-3.412 2.592,-4.187 L 13.8,5.349 12.24,3.459 C 10.153,4.713 8.752,6.987 8.752,9.599 V 24.48 C 8.69,24.418 8.367,24.092 8.152,23.816 l -0.385,0.86 c 1.751,1.854 4.761,3.077 8.178,3.077 2.1,0 4.047,-0.468 5.64,-1.253 l -0.659,-0.512 c -0.012,0.011 -0.012,0.011 -0.012,0.011 z"
         enable-background="new    "
         id="path38"
         inkscape:connector-curvature="0"
         style="opacity:0.5;fill:#ffffff" /></g></g><g
     id="0.1"
     transform="matrix(1.3888887,0,0,1.3888887,159.67576,-5.3055403e-7)"><g
       id="0.1.0"><g
         id="0.1.0.0"><path
           d="m 1.618,41.137 c 0.036,0.069 0.065,0.203 0.065,0.125 l 0,-2.527 c 0,-0.078 -0.03,-0.198 -0.066,-0.267 L 0.527,36.403 C 0.491,36.335 0.461,36.341 0.461,36.42 l -0.117,1.993 c 0,0.078 -0.03,0.255 0.006,0.324 l 1.268,2.4 z"
           id="0.1.0.0.0"
           inkscape:connector-curvature="0"
           style="fill:#4d4d4d" /><path
           d="M 0.066,38.588 C 0.03,38.657 0.001,38.791 0.001,38.713 l 0,-2.527 c 0,-0.078 0.03,-0.198 0.066,-0.267 l 1.09,-2.065 c 0.036,-0.068 0.066,-0.062 0.066,0.017 v 2.321 c 0,0.078 -0.029,0.198 -0.065,0.268 l -1.092,2.128 z"
           id="0.1.0.0.1"
           inkscape:connector-curvature="0"
           style="fill:#999999" /><g
           id="0.1.0.0.2"><path
             d="M 1.605,41.111 C 1.569,41.042 1.511,40.928 1.475,40.859 L 0.43,38.839 C 0.394,38.77 0.394,38.656 0.43,38.587 L 1.465,36.562 C 1.501,36.493 1.473,36.407 1.403,36.372 L 1.337,36.338 C 1.268,36.303 1.182,36.33 1.147,36.4 l -1.118,2.189 c -0.036,0.069 -0.035,0.183 0,0.252 l 1.13,2.183 c 0.036,0.069 0.124,0.15 0.196,0.181 l 0.25,0.104 c 0.072,0.03 0.102,-0.002 0.066,-0.071 L 1.605,41.111 z"
             id="0.1.0.0.2.0"
             inkscape:connector-curvature="0"
             style="fill:#666666" /></g></g><rect
         id="0.1.0.1"
         height="11.896"
         y="20.84"
         x="1.171"
         width="0.35699999"
         style="fill:#ababab" /><path
         d="m 1.222,34.04 c 0,-0.078 -0.03,-0.085 -0.066,-0.017 l -1.09,2.065 C 0.03,36.157 0,36.277 0,36.355 v -0.17 c 0,-0.078 0.03,-0.198 0.066,-0.267 l 1.09,-2.065 c 0.036,-0.068 0.066,-0.062 0.066,0.017"
         id="0.1.0.2"
         inkscape:connector-curvature="0"
         style="opacity:0.2;fill:#ffffff" /><rect
         id="0.1.0.3"
         height="4.6560001"
         y="32.736"
         x="1.171"
         width="0.35699999"
         style="fill:#808080" /></g><g
       id="0.1.1"><g
         id="0.1.1.0"><path
           d="m 20.783,41.137 c -0.035,0.069 -0.064,0.203 -0.064,0.125 l -0.002,-2.527 c 0,-0.078 0.031,-0.198 0.066,-0.267 l 1.09,-2.065 c 0.037,-0.068 0.066,-0.062 0.066,0.017 l 0.117,1.993 c 0,0.078 0.029,0.255 -0.006,0.324 l -1.267,2.4 z"
           id="0.1.1.0.0"
           inkscape:connector-curvature="0"
           style="fill:#4d4d4d" /><path
           d="m 22.336,38.588 c 0.035,0.069 0.064,0.203 0.064,0.125 v -2.527 c 0,-0.078 -0.029,-0.198 -0.064,-0.267 L 21.244,33.854 C 21.209,33.786 21.18,33.792 21.18,33.871 v 2.321 c 0,0.078 0.029,0.198 0.064,0.268 l 1.092,2.128 z"
           id="0.1.1.0.1"
           inkscape:connector-curvature="0"
           style="fill:#999999" /><g
           id="0.1.1.0.2"><path
             d="m 20.797,41.111 c 0.035,-0.069 0.094,-0.183 0.129,-0.252 l 1.047,-2.02 c 0.035,-0.069 0.035,-0.183 0,-0.252 l -1.035,-2.025 c -0.035,-0.069 -0.008,-0.155 0.063,-0.19 l 0.066,-0.034 c 0.068,-0.035 0.154,-0.008 0.189,0.062 l 1.119,2.189 c 0.035,0.069 0.035,0.183 -0.002,0.252 l -1.129,2.183 c -0.035,0.069 -0.125,0.15 -0.195,0.181 l -0.25,0.104 c -0.072,0.03 -0.102,-0.002 -0.066,-0.071 l 0.064,-0.127 z"
             id="0.1.1.0.2.0"
             inkscape:connector-curvature="0"
             style="fill:#666666" /></g></g><rect
         id="0.1.1.1"
         height="11.896"
         y="20.84"
         x="20.497999"
         width="0.73199999"
         style="fill:#ababab" /><path
         d="m 21.18,34.04 c 0,-0.078 0.029,-0.085 0.064,-0.017 l 1.092,2.065 c 0.035,0.068 0.064,0.188 0.064,0.267 v -0.17 c 0,-0.078 -0.029,-0.198 -0.064,-0.267 L 21.244,33.853 C 21.209,33.785 21.18,33.791 21.18,33.87"
         id="0.1.1.2"
         inkscape:connector-curvature="0"
         style="opacity:0.2;fill:#ffffff" /><rect
         id="0.1.1.3"
         height="4.6560001"
         y="32.736"
         x="20.872999"
         width="0.35699999"
         style="fill:#808080" /></g><rect
       id="0.1.2"
       height="0.484"
       y="0.43599999"
       x="10.639"
       width="1.135"
       style="fill:#0e0e0e" /><g
       id="0.1.3"><polygon
         id="connector0pin-0"
         points="3.68,46.382 3.475,45.265 4.551,45.265 4.346,46.382 "
         style="fill:#8c8c8c" /><polygon
         id="connector0terminal-2"
         points="3.661,46.385 3.59,45.829 4.417,45.829 4.344,46.385 "
         style="fill:#8c8c8c" /><polygon
         id="connector1pin-7"
         points="10.889,46.382 10.672,45.269 11.75,45.269 11.533,46.382 "
         style="fill:#8c8c8c" /><polygon
         id="connector1terminal-7"
         points="10.908,46.385 10.795,45.829 11.627,45.829 11.514,46.385 "
         style="fill:#8c8c8c" /><polygon
         id="connector2pin-1"
         points="18.082,46.382 17.879,45.265 18.955,45.265 18.75,46.382 "
         style="fill:#8c8c8c" /><polygon
         id="connector2terminal-8"
         points="18.086,46.385 17.992,45.829 18.84,45.829 18.746,46.385 "
         style="fill:#8c8c8c" /></g><g
       transform="translate(100,144.521)"
       id="0.1.4"><g
         id="g3474"><g
           id="g3476"><g
             transform="translate(1388.89,1968.75)"
             id="0.1.4.0.0.0"><g
               id="0.1.4.0.0"><g
                 id="0.1.4.0"><g
                   id="g3481"><path
                     d="m -1467.987,-2073.793 c 0,1.06 -0.861,1.92 -1.92,1.92 h -15.533 c -1.063,0 -1.922,-0.861 -1.922,-1.921 v -18.637 c 0,-1.061 0.859,-1.922 1.922,-1.922 h 15.531 c 1.063,0 1.92,0.862 1.92,1.922 v 18.638 h 0 z"
                     id="path3483"
                     inkscape:connector-curvature="0"
                     style="fill:#0a0a0a" /><path
                     d="m -1467.989,-2077.303 c 0,1.064 -0.863,1.926 -1.928,1.926 h -15.568 c -1.064,0 -1.926,-0.861 -1.926,-1.926 v -18.683 c 0,-1.064 0.861,-1.926 1.926,-1.926 h 15.57 c 1.064,0 1.926,0.863 1.926,1.926 v 18.683 l 0,0 z"
                     id="0.1.4.0.0.1"
                     inkscape:connector-curvature="0"
                     style="fill:#1a1a1a" /><path
                     d="m -1467.989,-2078.14 c 0,1.064 -0.863,1.926 -1.928,1.926 h -15.568 c -1.064,0 -1.926,-0.861 -1.926,-1.926 v -17.846 c 0,-1.064 0.861,-1.926 1.926,-1.926 h 15.57 c 1.064,0 1.926,0.863 1.926,1.926 v 17.846 l 0,0 z"
                     id="0.1.4.0.0.2"
                     inkscape:connector-curvature="0"
                     style="fill:#ababab" /><path
                     d="m -1487.413,-2095.855 c 0,-1.063 0.863,-1.926 1.928,-1.926 h 15.57 c 1.063,0 1.926,0.862 1.926,1.926 v -0.13 c 0,-1.063 -0.863,-1.926 -1.926,-1.926 h -15.57 c -1.064,0 -1.928,0.861 -1.928,1.926 v 0.13 z"
                     id="0.1.4.0.0.3"
                     inkscape:connector-curvature="0"
                     style="fill:#cccccc" /><path
                     d="m -1467.989,-2078.271 c 0,1.064 -0.861,1.926 -1.926,1.926 h -15.57 c -1.063,0 -1.926,-0.861 -1.926,-1.926 v 0.131 c 0,1.063 0.862,1.926 1.926,1.926 h 15.57 c 1.064,0 1.926,-0.861 1.926,-1.926 v -0.131 z"
                     id="0.1.4.0.0.4"
                     inkscape:connector-curvature="0"
                     style="fill:#666666" /><path
                     d="m -1469.984,-2079.646 c 0.734,0 1.328,0.594 1.328,1.326 0,0.732 -0.594,1.326 -1.328,1.326 -0.73,0 -1.324,-0.594 -1.324,-1.326 0,-0.732 0.594,-1.326 1.324,-1.326 z"
                     id="0.1.4.0.0.5"
                     inkscape:connector-curvature="0" /><circle
                     id="0.1.4.0.0.6"
                     r="1.326"
                     cy="-2078.3201"
                     cx="-1485.421"
                     sodipodi:cx="-1485.421"
                     sodipodi:cy="-2078.3201"
                     sodipodi:rx="1.326"
                     sodipodi:ry="1.326"
                     d="m -1484.095,-2078.3201 c 0,0.7324 -0.5937,1.326 -1.326,1.326 -0.7324,0 -1.326,-0.5936 -1.326,-1.326 0,-0.7323 0.5936,-1.326 1.326,-1.326 0.7323,0 1.326,0.5937 1.326,1.326 z" /><circle
                     id="0.1.4.0.0.7"
                     r="1.326"
                     cy="-2095.9099"
                     cx="-1469.984"
                     sodipodi:cx="-1469.984"
                     sodipodi:cy="-2095.9099"
                     sodipodi:rx="1.326"
                     sodipodi:ry="1.326"
                     d="m -1468.658,-2095.9099 c 0,0.7323 -0.5937,1.326 -1.326,1.326 -0.7323,0 -1.326,-0.5937 -1.326,-1.326 0,-0.7323 0.5937,-1.326 1.326,-1.326 0.7323,0 1.326,0.5937 1.326,1.326 z" /><circle
                     id="0.1.4.0.0.8"
                     r="1.326"
                     cy="-2095.9099"
                     cx="-1485.421"
                     sodipodi:cx="-1485.421"
                     sodipodi:cy="-2095.9099"
                     sodipodi:rx="1.326"
                     sodipodi:ry="1.326"
                     d="m -1484.095,-2095.9099 c 0,0.7323 -0.5937,1.326 -1.326,1.326 -0.7324,0 -1.326,-0.5937 -1.326,-1.326 0,-0.7323 0.5936,-1.326 1.326,-1.326 0.7323,0 1.326,0.5937 1.326,1.326 z" /><path
                     d="m -1469.984,-2079.594 c 0.588,0 1.063,0.475 1.063,1.061 0,0.586 -0.475,1.061 -1.063,1.061 -0.584,0 -1.061,-0.475 -1.061,-1.061 0,-0.586 0.477,-1.061 1.061,-1.061 z"
                     id="0.1.4.0.0.9"
                     inkscape:connector-curvature="0"
                     style="fill:#0d0d0d" /><circle
                     id="0.1.4.0.0.10"
                     r="1.061"
                     cy="-2078.5339"
                     cx="-1485.421"
                     sodipodi:cx="-1485.421"
                     sodipodi:cy="-2078.5339"
                     sodipodi:rx="1.061"
                     sodipodi:ry="1.061"
                     style="fill:#0d0d0d"
                     d="m -1484.36,-2078.5339 c 0,0.5859 -0.475,1.061 -1.061,1.061 -0.586,0 -1.061,-0.4751 -1.061,-1.061 0,-0.586 0.475,-1.061 1.061,-1.061 0.586,0 1.061,0.475 1.061,1.061 z" /><circle
                     id="0.1.4.0.0.11"
                     r="1.061"
                     cy="-2096.124"
                     cx="-1469.984"
                     sodipodi:cx="-1469.984"
                     sodipodi:cy="-2096.124"
                     sodipodi:rx="1.061"
                     sodipodi:ry="1.061"
                     style="fill:#0d0d0d"
                     d="m -1468.923,-2096.124 c 0,0.586 -0.475,1.061 -1.061,1.061 -0.586,0 -1.061,-0.475 -1.061,-1.061 0,-0.586 0.475,-1.061 1.061,-1.061 0.586,0 1.061,0.475 1.061,1.061 z" /><circle
                     id="0.1.4.0.0.12"
                     r="1.061"
                     cy="-2096.124"
                     cx="-1485.421"
                     sodipodi:cx="-1485.421"
                     sodipodi:cy="-2096.124"
                     sodipodi:rx="1.061"
                     sodipodi:ry="1.061"
                     style="fill:#0d0d0d"
                     d="m -1484.36,-2096.124 c 0,0.586 -0.475,1.061 -1.061,1.061 -0.586,0 -1.061,-0.475 -1.061,-1.061 0,-0.586 0.475,-1.061 1.061,-1.061 0.586,0 1.061,0.475 1.061,1.061 z" /><path
                     d="m -1482.471,-2086.428 c 0.207,-2.45 2.279,-4.376 4.783,-4.376 2.504,0 4.576,1.926 4.783,4.376 v -3.926 c -0.207,-2.451 -2.318,-7.196 -4.82,-7.196 -2.504,0 -4.539,4.746 -4.746,7.196 v 3.926 z"
                     id="0.1.4.0.0.13"
                     inkscape:connector-curvature="0"
                     style="fill:#666666" /><circle
                     id="0.1.4.0.0.14"
                     r="5.0949998"
                     cy="-2086.644"
                     cx="-1477.7"
                     sodipodi:cx="-1477.7"
                     sodipodi:cy="-2086.644"
                     sodipodi:rx="5.0949998"
                     sodipodi:ry="5.0949998"
                     style="fill:#666666"
                     d="m -1472.605,-2086.644 c 0,2.8138 -2.2811,5.095 -5.095,5.095 -2.8138,0 -5.095,-2.2812 -5.095,-5.095 0,-2.8139 2.2812,-5.095 5.095,-5.095 2.8139,0 5.095,2.2811 5.095,5.095 z" /><circle
                     id="0.1.4.0.0.15"
                     r="4.901"
                     cy="-2086.644"
                     cx="-1477.7"
                     sodipodi:cx="-1477.7"
                     sodipodi:cy="-2086.644"
                     sodipodi:rx="4.901"
                     sodipodi:ry="4.901"
                     d="m -1472.799,-2086.644 c 0,2.7067 -2.1942,4.901 -4.901,4.901 -2.7067,0 -4.901,-2.1943 -4.901,-4.901 0,-2.7068 2.1943,-4.901 4.901,-4.901 2.7068,0 4.901,2.1942 4.901,4.901 z" /><path
                     d="m -1473.579,-2101.216 0.414,0.473 -0.668,0.136 0.314,0.53 -0.689,0.031 0.201,0.57 -0.682,-0.074 0.08,0.592 -0.658,-0.176 -0.029,0.597 -0.619,-0.271 -0.15,0.583 -0.547,-0.363 -0.271,0.551 -0.471,-0.438 -0.375,0.5 -0.375,-0.5 -0.469,0.438 -0.263,-0.551 -0.551,0.363 -0.151,-0.583 -0.618,0.271 -0.031,-0.597 -0.657,0.176 0.086,-0.592 -0.688,0.074 0.202,-0.57 -0.684,-0.031 0.309,-0.53 -0.667,-0.136 0.416,-0.473 -0.6,-0.222 v 15.203 c 0.206,2.449 2.278,4.376 4.781,4.376 2.506,0 4.578,-1.927 4.783,-4.376 v -15.214 h -0.035 l -0.638,0.233 z"
                     id="0.1.4.0.0.16"
                     inkscape:connector-curvature="0" /><polygon
                     id="0.1.4.0.0.17"
                     points="-1474.005,-2111.833 -1474.603,-2111.768 -1474.603,-2112.351 -1475.265,-2112.175 -1475.296,-2112.771 -1475.909,-2112.499 -1476.066,-2113.083 -1476.612,-2112.724 -1476.88,-2113.271 -1477.351,-2112.833 -1477.353,-2112.834 -1477.429,-2109.125 -1478.179,-2109.141 -1478.103,-2112.835 -1478.571,-2113.271 -1478.835,-2112.724 -1479.385,-2113.083 -1479.538,-2112.499 -1480.15,-2112.771 -1480.185,-2112.175 -1480.843,-2112.351 -1480.843,-2111.768 -1481.44,-2111.833 -1481.44,-2111.254 -1481.927,-2111.232 -1481.927,-2110.642 -1482.286,-2110.571 -1482.286,-2109.94 -1482.505,-2109.86 -1482.505,-2109.175 -1482.581,-2109.133 -1482.581,-2102.024 -1482.505,-2101.981 -1482.505,-2101.292 -1482.286,-2101.213 -1482.286,-2100.587 -1481.927,-2100.514 -1481.927,-2099.921 -1481.446,-2099.898 -1481.446,-2099.319 -1480.843,-2099.385 -1480.843,-2098.802 -1480.185,-2098.978 -1480.155,-2098.381 -1479.538,-2098.653 -1479.385,-2098.07 -1478.835,-2098.434 -1478.571,-2097.882 -1478.101,-2098.32 -1477.726,-2097.82 -1477.351,-2098.32 -1476.88,-2097.882 -1476.612,-2098.434 -1476.066,-2098.07 -1475.913,-2098.653 -1475.296,-2098.381 -1475.265,-2098.978 -1474.607,-2098.802 -1474.607,-2099.386 -1474.005,-2099.319 -1474.005,-2099.898 -1473.521,-2099.921 -1473.521,-2100.515 -1473.165,-2100.587 -1473.165,-2101.211 -1472.943,-2101.292 -1472.943,-2101.985 -1472.872,-2102.024 -1472.872,-2109.133 -1472.943,-2109.172 -1472.943,-2109.86 -1473.165,-2109.941 -1473.165,-2110.571 -1473.521,-2110.641 -1473.521,-2111.232 -1474.005,-2111.254 "
                     style="opacity:0.7" /><g
                     id="0.1.4.0.0.18"><g
                       id="0.1.4.0.0.18.0"><g
                         id="0.1.4.0.0.18.0.0"><g
                           id="0.1.4.0.0.18.0.0.0"><g
                             id="0.1.4.0.0.18.0.0.0.0"
                             style="opacity:0.8"><polygon
                               id="0.1.4.0.0.18.0.0.0.0.0"
                               points="-1474.689,-2111.758 -1474.603,-2112.351 -1474.603,-2105.438 -1474.689,-2104.846 " /></g><g
                             id="0.1.4.0.0.18.0.0.0.1"
                             style="opacity:0.8"><polygon
                               id="0.1.4.0.0.18.0.0.0.1.0"
                               points="-1480.843,-2112.351 -1480.757,-2111.758 -1480.757,-2104.846 -1480.843,-2105.438 " /></g><g
                             id="0.1.4.0.0.18.0.0.0.2"
                             style="opacity:0.8"><polygon
                               id="0.1.4.0.0.18.0.0.0.2.0"
                               points="-1481.44,-2111.833 -1481.239,-2111.263 -1481.239,-2104.352 -1481.44,-2104.922 " /></g><g
                             id="0.1.4.0.0.18.0.0.0.3"
                             style="opacity:0.8"><polygon
                               id="0.1.4.0.0.18.0.0.0.3.0"
                               points="-1474.208,-2111.263 -1474.005,-2111.833 -1474.005,-2104.922 -1474.208,-2104.352 " /></g><g
                             id="0.1.4.0.0.18.0.0.0.4"
                             style="opacity:0.8"><polygon
                               id="0.1.4.0.0.18.0.0.0.4.0"
                               points="-1481.927,-2111.232 -1481.614,-2110.703 -1481.614,-2103.79 -1481.927,-2104.32 " /></g><g
                             id="0.1.4.0.0.18.0.0.0.5"
                             style="opacity:0.8"><polygon
                               id="0.1.4.0.0.18.0.0.0.5.0"
                               points="-1473.833,-2110.703 -1473.521,-2111.232 -1473.521,-2104.32 -1473.833,-2103.79 " /></g><g
                             id="0.1.4.0.0.18.0.0.0.6"
                             style="opacity:0.8"><polygon
                               id="0.1.4.0.0.18.0.0.0.6.0"
                               points="-1473.579,-2110.092 -1473.165,-2110.571 -1473.165,-2103.658 -1473.579,-2103.181 " /></g><g
                             id="0.1.4.0.0.18.0.0.0.7"
                             style="opacity:0.8"><polygon
                               id="0.1.4.0.0.18.0.0.0.7.0"
                               points="-1482.286,-2110.571 -1481.872,-2110.092 -1481.872,-2103.181 -1482.286,-2103.658 " /></g><g
                             id="0.1.4.0.0.18.0.0.0.8"
                             style="opacity:0.8"><polygon
                               id="0.1.4.0.0.18.0.0.0.8.0"
                               points="-1473.448,-2109.457 -1472.943,-2109.86 -1472.943,-2102.948 -1473.448,-2102.545 " /></g><g
                             id="0.1.4.0.0.18.0.0.0.9"
                             style="opacity:0.8"><polygon
                               id="0.1.4.0.0.18.0.0.0.9.0"
                               points="-1482.505,-2109.86 -1482.003,-2109.457 -1482.003,-2102.545 -1482.505,-2102.948 " /></g><g
                             id="0.1.4.0.0.18.0.0.0.10"
                             style="opacity:0.8"><polygon
                               id="0.1.4.0.0.18.0.0.0.10.0"
                               points="-1473.448,-2108.808 -1472.872,-2109.133 -1472.872,-2102.221 -1473.448,-2101.896 " /></g><g
                             id="0.1.4.0.0.18.0.0.0.11"
                             style="opacity:0.8"><polygon
                               id="0.1.4.0.0.18.0.0.0.11.0"
                               points="-1482.581,-2109.133 -1482.003,-2108.808 -1482.003,-2101.896 -1482.581,-2102.221 " /></g><g
                             id="0.1.4.0.0.18.0.0.0.12"
                             style="opacity:0.8"><polygon
                               id="0.1.4.0.0.18.0.0.0.12.0"
                               points="-1482.505,-2108.4 -1481.872,-2108.168 -1481.872,-2101.256 -1482.505,-2101.488 " /></g><g
                             id="0.1.4.0.0.18.0.0.0.13"
                             style="opacity:0.8"><polygon
                               id="0.1.4.0.0.18.0.0.0.13.0"
                               points="-1473.579,-2108.168 -1472.943,-2108.4 -1472.943,-2101.488 -1473.579,-2101.256 " /></g><g
                             id="0.1.4.0.0.18.0.0.0.14"
                             style="opacity:0.8"><polygon
                               id="0.1.4.0.0.18.0.0.0.14.0"
                               points="-1473.833,-2107.558 -1473.165,-2107.695 -1473.165,-2100.783 -1473.833,-2100.647 " /></g><g
                             id="0.1.4.0.0.18.0.0.0.15"
                             style="opacity:0.8"><polygon
                               id="0.1.4.0.0.18.0.0.0.15.0"
                               points="-1482.286,-2107.695 -1481.618,-2107.558 -1481.618,-2100.647 -1482.286,-2100.783 " /></g><g
                             id="0.1.4.0.0.18.0.0.0.16"
                             style="opacity:0.8"><polygon
                               id="0.1.4.0.0.18.0.0.0.16.0"
                               points="-1481.927,-2107.029 -1481.244,-2106.999 -1481.244,-2100.085 -1481.927,-2100.117 " /></g><g
                             id="0.1.4.0.0.18.0.0.0.17"
                             style="opacity:0.8"><polygon
                               id="0.1.4.0.0.18.0.0.0.17.0"
                               points="-1474.208,-2106.999 -1473.521,-2107.029 -1473.521,-2100.117 -1474.208,-2100.085 " /></g><g
                             id="0.1.4.0.0.18.0.0.0.18"
                             style="opacity:0.8"><polygon
                               id="0.1.4.0.0.18.0.0.0.18.0"
                               points="-1481.446,-2106.428 -1480.757,-2106.502 -1480.757,-2099.59 -1481.446,-2099.516 " /></g><g
                             id="0.1.4.0.0.18.0.0.0.19"
                             style="opacity:0.8"><polygon
                               id="0.1.4.0.0.18.0.0.0.19.0"
                               points="-1474.689,-2106.502 -1474.005,-2106.428 -1474.005,-2099.516 -1474.689,-2099.59 " /></g><g
                             id="0.1.4.0.0.18.0.0.0.20"
                             style="opacity:0.8"><polygon
                               id="0.1.4.0.0.18.0.0.0.20.0"
                               points="-1475.265,-2106.085 -1474.607,-2105.911 -1474.607,-2098.998 -1475.265,-2099.174 " /></g><g
                             id="0.1.4.0.0.18.0.0.0.21"
                             style="opacity:0.8"><polygon
                               id="0.1.4.0.0.18.0.0.0.21.0"
                               points="-1480.843,-2105.911 -1480.185,-2106.085 -1480.185,-2099.174 -1480.843,-2098.998 " /></g><g
                             id="0.1.4.0.0.18.0.0.0.22"
                             style="opacity:0.8"><polygon
                               id="0.1.4.0.0.18.0.0.0.22.0"
                               points="-1480.185,-2106.085 -1480.155,-2105.49 -1480.155,-2098.577 -1480.185,-2099.174 " /></g><g
                             id="0.1.4.0.0.18.0.0.0.23"
                             style="opacity:0.8"><polygon
                               id="0.1.4.0.0.18.0.0.0.23.0"
                               points="-1475.296,-2105.49 -1475.265,-2106.085 -1475.265,-2099.174 -1475.296,-2098.577 " /></g><g
                             id="0.1.4.0.0.18.0.0.0.24"
                             style="opacity:0.8"><polygon
                               id="0.1.4.0.0.18.0.0.0.24.0"
                               points="-1480.155,-2105.49 -1479.538,-2105.761 -1479.538,-2098.85 -1480.155,-2098.577 " /></g><g
                             id="0.1.4.0.0.18.0.0.0.25"
                             style="opacity:0.8"><polygon
                               id="0.1.4.0.0.18.0.0.0.25.0"
                               points="-1475.913,-2105.761 -1475.296,-2105.49 -1475.296,-2098.577 -1475.913,-2098.85 " /></g><g
                             id="0.1.4.0.0.18.0.0.0.26"
                             style="opacity:0.8"><polygon
                               id="0.1.4.0.0.18.0.0.0.26.0"
                               points="-1479.538,-2105.761 -1479.385,-2105.179 -1479.385,-2098.267 -1479.538,-2098.85 " /></g><g
                             id="0.1.4.0.0.18.0.0.0.27"
                             style="opacity:0.8"><polygon
                               id="0.1.4.0.0.18.0.0.0.27.0"
                               points="-1479.385,-2105.179 -1478.835,-2105.542 -1478.835,-2098.63 -1479.385,-2098.267 " /></g><g
                             id="0.1.4.0.0.18.0.0.0.28"
                             style="opacity:0.8"><polygon
                               id="0.1.4.0.0.18.0.0.0.28.0"
                               points="-1476.612,-2105.542 -1476.066,-2105.179 -1476.066,-2098.267 -1476.612,-2098.63 " /></g><g
                             id="0.1.4.0.0.18.0.0.0.29"
                             style="opacity:0.8"><polygon
                               id="0.1.4.0.0.18.0.0.0.29.0"
                               points="-1476.066,-2105.179 -1475.913,-2105.761 -1475.913,-2098.85 -1476.066,-2098.267 " /></g><g
                             id="0.1.4.0.0.18.0.0.0.30"
                             style="opacity:0.8"><polygon
                               id="0.1.4.0.0.18.0.0.0.30.0"
                               points="-1478.571,-2104.991 -1478.101,-2105.427 -1478.101,-2098.517 -1478.571,-2098.078 " /></g><g
                             id="0.1.4.0.0.18.0.0.0.31"
                             style="opacity:0.8"><polygon
                               id="0.1.4.0.0.18.0.0.0.31.0"
                               points="-1477.351,-2105.427 -1476.88,-2104.991 -1476.88,-2098.078 -1477.351,-2098.517 " /></g><g
                             id="0.1.4.0.0.18.0.0.0.32"
                             style="opacity:0.8"><polygon
                               id="0.1.4.0.0.18.0.0.0.32.0"
                               points="-1476.88,-2104.991 -1476.612,-2105.542 -1476.612,-2098.63 -1476.88,-2098.078 " /></g><g
                             id="0.1.4.0.0.18.0.0.0.33"
                             style="opacity:0.8"><polygon
                               id="0.1.4.0.0.18.0.0.0.33.0"
                               points="-1478.835,-2105.542 -1478.571,-2104.991 -1478.571,-2098.078 -1478.835,-2098.63 " /></g><g
                             id="0.1.4.0.0.18.0.0.0.34"
                             style="opacity:0.8"><polygon
                               id="0.1.4.0.0.18.0.0.0.34.0"
                               points="-1477.726,-2104.929 -1477.351,-2105.427 -1477.351,-2098.517 -1477.726,-2098.017 " /></g><g
                             id="0.1.4.0.0.18.0.0.0.35"
                             style="opacity:0.8"><polygon
                               id="0.1.4.0.0.18.0.0.0.35.0"
                               points="-1478.101,-2105.427 -1477.726,-2104.929 -1477.726,-2098.017 -1478.101,-2098.517 " /></g><polygon
                             id="0.1.4.0.0.18.0.0.0.36"
                             points="-1473.521,-2111.232 -1474.208,-2111.263 -1474.005,-2111.833 -1474.689,-2111.758 -1474.603,-2112.351 -1475.265,-2112.175 -1475.296,-2112.771 -1475.909,-2112.499 -1476.066,-2113.083 -1476.612,-2112.724 -1476.88,-2113.271 -1477.351,-2112.833 -1477.353,-2112.834 -1477.429,-2109.125 -1478.179,-2109.141 -1478.103,-2112.835 -1478.571,-2113.271 -1478.835,-2112.724 -1479.385,-2113.083 -1479.538,-2112.499 -1480.15,-2112.771 -1480.185,-2112.175 -1480.843,-2112.351 -1480.757,-2111.758 -1481.44,-2111.833 -1481.239,-2111.263 -1481.927,-2111.232 -1481.614,-2110.703 -1482.286,-2110.571 -1481.872,-2110.092 -1482.505,-2109.86 -1482.003,-2109.457 -1482.581,-2109.133 -1482.003,-2108.808 -1482.505,-2108.4 -1481.872,-2108.168 -1482.286,-2107.695 -1481.618,-2107.558 -1481.927,-2107.029 -1481.244,-2106.999 -1481.446,-2106.428 -1480.757,-2106.502 -1480.843,-2105.911 -1480.185,-2106.085 -1480.155,-2105.49 -1479.538,-2105.761 -1479.385,-2105.179 -1478.835,-2105.542 -1478.571,-2104.991 -1478.101,-2105.427 -1477.726,-2104.929 -1477.351,-2105.427 -1476.88,-2104.991 -1476.612,-2105.542 -1476.066,-2105.179 -1475.913,-2105.761 -1475.296,-2105.49 -1475.265,-2106.085 -1474.607,-2105.911 -1474.689,-2106.502 -1474.005,-2106.428 -1474.208,-2106.999 -1473.521,-2107.029 -1473.833,-2107.558 -1473.165,-2107.695 -1473.579,-2108.168 -1472.943,-2108.4 -1473.448,-2108.808 -1472.872,-2109.133 -1473.448,-2109.457 -1472.943,-2109.86 -1473.579,-2110.092 -1473.165,-2110.571 -1473.833,-2110.703 "
                             style="fill:#1a1a1a" /></g></g></g></g><path
                     d="m -1472.905,-2090.16 c -0.207,2.45 -2.279,4.376 -4.783,4.376 -2.503,0 -4.576,-1.926 -4.783,-4.376 v 3.925 c 0.207,2.449 2.279,4.376 4.783,4.376 2.504,0 4.576,-1.927 4.783,-4.376 v -3.925 z"
                     id="0.1.4.0.0.19"
                     inkscape:connector-curvature="0"
                     style="fill:#030303" /><rect
                     id="0.1.4.0.0.20"
                     height="0.90600002"
                     y="-2075.0349"
                     x="-1481.694"
                     width="8.0389996"
                     style="fill:#1a1a1a" /><rect
                     id="0.1.4.0.0.21"
                     height="1.1799999"
                     y="-2076.2141"
                     x="-1481.694"
                     width="8.0389996"
                     style="fill:#0e0e0e" /></g></g></g></g></g></g></g><ellipse
       id="0.1.5"
       ry="3.372"
       rx="4.1269999"
       cy="4.138"
       cx="11.086"
       sodipodi:cx="11.086"
       sodipodi:cy="4.138"
       sodipodi:rx="4.1269999"
       sodipodi:ry="3.372"
       style="fill:#0e0e0e"
       d="m 15.213,4.138 c 0,1.8623042 -1.84772,3.372 -4.127,3.372 -2.2792786,0 -4.1269994,-1.5096958 -4.1269994,-3.372 0,-1.8623042 1.8477208,-3.37199997 4.1269994,-3.37199997 2.27928,0 4.127,1.50969577 4.127,3.37199997 z" /><g
       id="0.1.6"><path
         d="M 11.461,4.146 11.529,0.803 C 11.383,0.79 11.238,0.766 11.086,0.766 c -0.105,0 -0.203,0.019 -0.307,0.025 l -0.068,3.339 0.75,0.016 z"
         id="0.1.6.0"
         inkscape:connector-curvature="0" /></g><g
       id="0.1.7"><g
         id="breadboard_1_"><rect
           id="0.1.7.0.0"
           height="2.678"
           y="42.591"
           x="17.879"
           width="1.076"
           style="fill:#8c8c8c" /><rect
           id="0.1.7.0.1"
           height="2.678"
           y="42.591"
           x="10.672"
           width="1.0779999"
           style="fill:#8c8c8c" /><rect
           id="0.1.7.0.2"
           height="2.678"
           y="42.591"
           x="3.4749999"
           width="1.076"
           style="fill:#8c8c8c" /></g><g
         id="breadboard_2_"><polygon
           id="0.1.7.1.0"
           points="17.879,45.266 18.094,46.362 18.739,46.362 18.955,45.266 "
           style="fill:#8c8c8c" /><polygon
           id="0.1.7.1.1"
           points="10.672,45.266 10.889,46.362 11.535,46.362 11.75,45.266 "
           style="fill:#8c8c8c" /><polygon
           id="0.1.7.1.2"
           points="3.475,45.266 3.69,46.362 4.336,46.362 4.551,45.266 "
           style="fill:#8c8c8c" /></g><g
         id="breadboard-1"><rect
           id="0.1.7.2.0"
           height="2.6110001"
           y="39.979"
           x="17.341999"
           width="2.152"
           style="fill:#8c8c8c" /><rect
           id="0.1.7.2.1"
           height="2.6110001"
           y="39.979"
           x="10.135"
           width="2.154"
           style="fill:#8c8c8c" /><rect
           id="0.1.7.2.2"
           height="2.6110001"
           y="39.979"
           x="2.9349999"
           width="2.152"
           style="fill:#8c8c8c" /></g><g
         id="breadboard_3_"
         style="opacity:0.2"><rect
           id="0.1.7.3.0"
           height="0.16500001"
           y="39.979"
           x="17.341999"
           width="2.152" /><rect
           id="0.1.7.3.1"
           height="0.16500001"
           y="39.979"
           x="10.135"
           width="2.154" /><rect
           id="0.1.7.3.2"
           height="0.16500001"
           y="39.979"
           x="2.9349999"
           width="2.152" /></g><g
         id="breadboard_4_"><rect
           id="0.1.7.4.0"
           height="0.16500001"
           y="39.813999"
           x="17.341999"
           width="2.152" /><rect
           id="0.1.7.4.1"
           height="0.16500001"
           y="39.813999"
           x="10.135"
           width="2.154" /><rect
           id="0.1.7.4.2"
           height="0.16500001"
           y="39.813999"
           x="2.9349999"
           width="2.152" /></g></g><rect
       id="0.1.8"
       height="11.896"
       y="20.84"
       x="1.171"
       width="0.35699999"
       style="fill:#ababab" /><g
       id="0.1.9"><polygon
         id="0.1.9.0"
         points="6.656,12.539 6.656,12.466 6.602,12.527 "
         style="fill:none" /><path
         d="M 6.602,12.527 6.656,12.465 V 12.404 H 6.71 l 0.309,-0.351 -0.6,-0.222 v 15.203 c 0.032,0.379 0.122,0.738 0.238,1.087 V 12.539 L 6.602,12.527 z"
         id="0.1.9.1"
         inkscape:connector-curvature="0"
         style="fill:none" /><path
         d="m 15.948,11.822 -0.637,0.232 0.414,0.473 -0.668,0.136 0.314,0.53 -0.689,0.031 0.201,0.57 -0.682,-0.074 0.08,0.592 -0.658,-0.176 -0.029,0.597 -0.141,-0.062 v 16.157 c 1.395,-0.746 2.391,-2.143 2.529,-3.793 V 11.822 h -0.034 z"
         id="0.1.9.2"
         inkscape:connector-curvature="0"
         style="fill:none" /><path
         d="m 12.975,14.462 -0.15,0.583 -0.547,-0.363 -0.211,0.428 v 16.22 c 0.496,-0.091 0.957,-0.27 1.387,-0.5 V 14.672 l -0.479,-0.21 z"
         id="0.1.9.3"
         inkscape:connector-curvature="0"
         style="opacity:0.2;fill:#202020" /><polygon
         id="0.1.9.4"
         points="6.71,12.405 6.656,12.405 6.656,12.466 "
         style="opacity:0.2;fill:#202020" /><path
         d="M 9.042,30.877 V 14.598 L 8.733,14.734 8.702,14.137 8.045,14.313 8.131,13.721 7.443,13.795 7.645,13.225 6.961,13.194 7.27,12.664 6.657,12.539 v 15.584 c 0.399,1.204 1.266,2.187 2.385,2.754 z"
         id="0.1.9.5"
         inkscape:connector-curvature="0"
         style="opacity:0.2;fill:#202020" /><path
         d="M 10.053,14.682 9.502,15.045 9.351,14.462 9.042,14.598 v 16.279 c 0.34,0.173 0.698,0.312 1.077,0.399 V 14.821 l -0.066,-0.139 z"
         id="0.1.9.6"
         inkscape:connector-curvature="0"
         style="opacity:0.2;fill:#202020" /><path
         d="M 10.053,14.682 9.502,15.045 9.351,14.462 9.042,14.598 v 16.279 c 0.34,0.173 0.698,0.312 1.077,0.399 V 14.821 l -0.066,-0.139 z"
         id="0.1.9.7"
         inkscape:connector-curvature="0"
         style="opacity:0.2;fill:#353535" /><path
         d="m 11.535,14.795 -0.375,0.5 -0.17,-0.227 v 16.324 c 0.07,0.003 0.139,0.02 0.209,0.02 0.297,0 0.586,-0.031 0.867,-0.083 v -16.22 l -0.061,0.123 -0.47,-0.437 z"
         id="0.1.9.8"
         inkscape:connector-curvature="0"
         style="opacity:0.2;fill:#202020" /><path
         d="m 11.535,14.795 -0.375,0.5 -0.17,-0.227 v 16.324 c 0.07,0.003 0.139,0.02 0.209,0.02 0.297,0 0.586,-0.031 0.867,-0.083 v -16.22 l -0.061,0.123 -0.47,-0.437 z"
         id="0.1.9.9"
         inkscape:connector-curvature="0"
         style="opacity:0.2;fill:#353535" /><path
         d="m 10.785,14.795 -0.469,0.438 -0.197,-0.412 v 16.456 c 0.283,0.065 0.572,0.103 0.871,0.116 V 15.068 l -0.205,-0.273 z"
         id="0.1.9.10"
         inkscape:connector-curvature="0"
         style="opacity:0.2;fill:#202020" /><path
         d="m 10.785,14.795 -0.469,0.438 -0.197,-0.412 v 16.456 c 0.283,0.065 0.572,0.103 0.871,0.116 V 15.068 l -0.205,-0.273 z"
         id="0.1.9.11"
         inkscape:connector-curvature="0"
         style="opacity:0.2;fill:#353535" /><path
         d="m 10.785,14.795 -0.469,0.438 -0.197,-0.412 v 16.456 c 0.283,0.065 0.572,0.103 0.871,0.116 V 15.068 l -0.205,-0.273 z"
         id="0.1.9.12"
         inkscape:connector-curvature="0"
         style="opacity:0.2;fill:#515151" /></g><g
       id="0.1.10"
       style="opacity:0.2"><path
         d="m 19.967,17.219 c 0,-0.586 -0.475,-1.061 -1.061,-1.061 -0.584,0 -1.061,0.475 -1.061,1.061 v -0.072 c 0,-0.586 0.477,-1.061 1.061,-1.061 0.586,0 1.061,0.475 1.061,1.061 v 0.072 z"
         id="0.1.10.0"
         inkscape:connector-curvature="0"
         style="fill:#ffffff" /><path
         d="m 4.531,17.219 c 0,-0.586 -0.475,-1.061 -1.061,-1.061 -0.586,0 -1.061,0.475 -1.061,1.061 v -0.072 c 0,-0.586 0.475,-1.061 1.061,-1.061 0.586,0 1.061,0.475 1.061,1.061 v 0.072 z"
         id="0.1.10.1"
         inkscape:connector-curvature="0"
         style="fill:#ffffff" /></g><g
       id="0.1.11"
       style="opacity:0.2"><path
         d="m 19.967,34.81 c 0,-0.586 -0.475,-1.062 -1.061,-1.062 -0.584,0 -1.061,0.476 -1.061,1.062 v -0.071 c 0,-0.586 0.477,-1.062 1.061,-1.062 0.586,0 1.061,0.476 1.061,1.062 v 0.071 z"
         id="0.1.11.0"
         inkscape:connector-curvature="0"
         style="fill:#ffffff" /><path
         d="m 4.531,34.81 c 0,-0.586 -0.475,-1.062 -1.061,-1.062 -0.586,0 -1.061,0.476 -1.061,1.062 v -0.071 c 0,-0.586 0.475,-1.062 1.061,-1.062 0.586,0 1.061,0.476 1.061,1.062 v 0.071 z"
         id="0.1.11.1"
         inkscape:connector-curvature="0"
         style="fill:#ffffff" /></g><g
       id="0.1.12"
       style="opacity:0.2"><polygon
         id="0.1.12.0"
         points="18.955,45.266 18.955,45.172 18.739,46.269 18.094,46.269 17.879,45.172 17.879,45.266 18.094,46.362 18.739,46.362 " /><polygon
         id="0.1.12.1"
         points="11.75,45.266 11.75,45.172 11.535,46.269 10.889,46.269 10.672,45.172 10.672,45.266 10.889,46.362 11.535,46.362 " /><polygon
         id="0.1.12.2"
         points="4.551,45.266 4.551,45.172 4.336,46.269 3.69,46.269 3.475,45.172 3.475,45.266 3.69,46.362 4.336,46.362 " /></g></g><g
     id="icon-25"
     transform="matrix(1.1111111,0,0,1.1111111,222.77824,11.747026)"><g
       id="part"><g
         id="Transistor_legs"><rect
           height="8.9890003"
           width="2.6919999"
           y="31.790001"
           x="14.641"
           id="rect9479"
           style="fill:#8c8c8c" /><rect
           height="8.9890003"
           width="2.6930001"
           y="31.790001"
           x="5.6690001"
           id="rect9481"
           style="fill:#8c8c8c" /><rect
           height="8.9890003"
           width="2.6930001"
           y="31.790001"
           x="23.614"
           id="rect9483"
           style="fill:#8c8c8c" /></g><g
         id="Transistor_pins"><rect
           height="11.688"
           width="2.6919999"
           y="20.104"
           x="14.641"
           id="rect9506_1_"
           style="fill:#8c8c8c" /><path
           d="m 9.778,20.104 v 4.146 c 0,0.528 -0.978,1.323 -1.498,1.78 -1.282,1.113 -2.61,2.273 -2.61,3.74 v 2.023 h 2.693 c 0,0 0,-1.25 0,-1.512 0,-0.646 1.13,-1.736 1.688,-2.211 1.246,-1.088 2.431,-2.113 2.431,-3.437 v -4.53 H 9.778 l 0,10e-4 z"
           id="path9510_1_"
           inkscape:connector-curvature="0"
           style="fill:#8c8c8c" /><path
           d="m 22.195,20.104 v 4.146 c 0,0.528 0.977,1.323 1.499,1.78 1.285,1.113 2.61,2.273 2.61,3.74 v 2.023 h -2.693 c 0,0 0,-1.25 0,-1.512 0,-0.646 -1.13,-1.736 -1.686,-2.211 -1.248,-1.088 -2.433,-2.113 -2.433,-3.437 v -4.53 h 2.703 l 0,10e-4 z"
           id="path9514_1_"
           inkscape:connector-curvature="0"
           style="fill:#8c8c8c" /></g><rect
         height="12.588"
         width="16.598"
         y="7.5120001"
         x="7.6880002"
         id="rect9553_1_"
         style="fill:#1a1a1a" /><path
         d="m 23.029,7.512 v 3.066 10.286 2.303 c 0.79,-0.891 1.256,-1.941 1.256,-3.065 l 0,0 V 7.512 h -1.256 z"
         id="path9555_1_"
         inkscape:connector-curvature="0"
         style="fill:#141414" /><path
         d="M 8.945,7.512 H 7.69 V 20.1 l 0,0 c 0,1.125 0.466,2.175 1.256,3.065 V 20.862 10.58 l -10e-4,-3.068 0,0 z"
         id="path9557_1_"
         inkscape:connector-curvature="0"
         style="fill:#242424" /><path
         d="m 7.688,7.512 0,0 c 0,1.125 0.466,2.176 1.256,3.066 h 14.095 c 0.79,-0.891 1.256,-1.941 1.256,-3.066 l 0,0 H 7.688 z"
         id="path9559_1_"
         inkscape:connector-curvature="0"
         style="fill:#1f1f1f" /><path
         d="m 15.987,1.689 c -4.584,0 -8.3,2.607 -8.3,5.827 h 16.598 c 0,-3.219 -3.713,-5.827 -8.298,-5.827 z"
         id="path9561_1_"
         inkscape:connector-curvature="0"
         style="fill:#141414" /><rect
         height="12.587"
         width="14.096"
         y="10.58"
         x="8.9449997"
         id="rect9563_1_" /></g><g
       id="label"><path
         id="path3900"
         d="m 11.907,19.639 v -6.75 h 2.701 v 1.349 h 1.35 v 1.351 h 1.351 v -2.702 h 2.699 v 6.75 h -2.699 v -1.35 h -1.351 v -1.35 h -1.35 v 2.701 h -2.701 z"
         inkscape:connector-curvature="0"
         style="fill:#999999" /></g></g></svg>